The Profitability of Broadway Shows
…
# Create new data frame for sorted data
broadway_sorted <- broadway_trend %>%
  filter(`#Perf` > 0) %>%   # filter out shows with only previews, and no performances
  select(Type, Show, Grosses) %>% 
  group_by(Type, Show) %>%
  summarize(total_shows = n(), mean = mean(Grosses)) %>%
  mutate(mean_gross = mean/1000000) %>%
  arrange(desc(mean))

## `summarise()` regrouping output by 'Type' (override with `.groups` argument)

# Print sorted data frame
broadway_sorted

## # A tibble: 46 x 5
## # Groups:   Type [3]
##    Type    Show                                   total_shows    mean mean_gross
##    <chr>   <chr>                                        <int>   <dbl>      <dbl>
##  1 Musical HAMILTON                                        17  3.05e6       3.05
##  2 Musical THE LION KING                                   17  2.34e6       2.34
##  3 Musical MOULIN ROUGE!                                    6  2.03e6       2.03
##  4 Special MORRISSEY                                        1  1.88e6       1.88
##  5 Play    TO KILL A MOCKINGBIRD                           17  1.85e6       1.85
##  6 Musical WICKED                                          17  1.78e6       1.78
##  7 Special DAVE CHAPPELLE                                   2  1.53e6       1.53
##  8 Musical ALADDIN                                         17  1.52e6       1.52
##  9 Musical AIN'T TOO PROUD                                 17  1.51e6       1.51
## 10 Play    HARRY POTTER AND THE CURSED CHILD, PA~          17  1.45e6       1.45
## # ... with 36 more rows
…
